<?xml version="1.0" encoding="UTF-8" standalone="no"?>
<!-- Created with Inkscape (http://www.inkscape.org/) -->

<svg
   xmlns:dc="http://purl.org/dc/elements/1.1/"
   xmlns:cc="http://creativecommons.org/ns#"
   xmlns:rdf="http://www.w3.org/1999/02/22-rdf-syntax-ns#"
   xmlns:svg="http://www.w3.org/2000/svg"
   xmlns="http://www.w3.org/2000/svg"
   xmlns:sodipodi="http://sodipodi.sourceforge.net/DTD/sodipodi-0.dtd"
   xmlns:inkscape="http://www.inkscape.org/namespaces/inkscape"
   width="1052"
   height="1488"
   id="svg2"
   version="1.1"
   inkscape:version="0.48.3.1 r9886"
   sodipodi:docname="190709_komplex.svg">
  <defs
     id="defs4" />
  <sodipodi:namedview
     id="base"
     pagecolor="#ffffff"
     bordercolor="#666666"
     borderopacity="1.0"
     inkscape:pageopacity="0.0"
     inkscape:pageshadow="2"
     inkscape:zoom="0.22344292"
     inkscape:cx="630.99422"
     inkscape:cy="937.37291"
     inkscape:document-units="px"
     inkscape:current-layer="g3042"
     showgrid="false"
     inkscape:snap-global="true"
     showguides="true"
     inkscape:guide-bbox="true">
    <sodipodi:guide
       position="40,1448"
       orientation="0,972"
       id="guide3037" />
    <sodipodi:guide
       position="40,40"
       orientation="-1408,0"
       id="guide3039" />
    <sodipodi:guide
       position="1012,40"
       orientation="0,-972"
       id="guide3041" />
    <sodipodi:guide
       position="1012,1448"
       orientation="1408,0"
       id="guide3043" />
  </sodipodi:namedview>
  <metadata
     id="metadata7">
    <rdf:RDF>
      <cc:Work
         rdf:about="">
        <dc:format>image/svg+xml</dc:format>
        <dc:type
           rdf:resource="http://purl.org/dc/dcmitype/StillImage" />
        <dc:title />
      </cc:Work>
    </rdf:RDF>
  </metadata>
  <g
     inkscape:label="TEST_01"
     inkscape:groupmode="layer"
     id="layer1"
     style="display:inline">
    <path
       style="fill:#000000;stroke:none"
       d="m 260,177 c 0,55 -45,100 -101,100 -55,0 -99,-45 -99,-100 0,-56 44,-100 99,-100 56,0 101,44 101,100 z"
       id="path3644"
       inkscape:connector-curvature="0" />
    <path
       inkscape:connector-curvature="0"
       id="path3647"
       d="m 370,227 c 0,24 -20,45 -45,45 -24,0 -45,-20 -45,-45 0,-24 20,-45 45,-45 24,0 45,20 45,45 z"
       style="fill:#000000;stroke:none" />
    <path
       style="fill:#000000;stroke:none"
       d="m 880,127 c 0,24 20,45 45,45 24,0 45,-20 45,-45 0,-24 -20,-45 -45,-45 -24,0 -45,20 -45,45 z"
       id="path3692"
       inkscape:connector-curvature="0" />
    <path
       inkscape:connector-curvature="0"
       id="path3706"
       d="m 780,397 c 0,55 45,100 101,100 55,0 99,-45 99,-100 0,-56 -44,-100 -99,-100 -56,0 -101,44 -101,100 z"
       style="fill:none;stroke:#000000;stroke-width:1px" />
    <path
       style="fill:none;stroke:#ff0000;stroke-width:1px"
       d="m 670,447 c 0,24 20,45 45,45 24,0 45,-20 45,-45 0,-24 -20,-45 -45,-45 -24,0 -45,20 -45,45 z"
       id="path3708"
       inkscape:connector-curvature="0" />
    <path
       inkscape:connector-curvature="0"
       id="path3710"
       d="m 570,447 c 0,24 20,45 45,45 24,0 45,-20 45,-45 0,-24 -20,-45 -45,-45 -24,0 -45,20 -45,45 z"
       style="fill:none;stroke:#0000ff;stroke-width:1px" />
    <path
       inkscape:connector-curvature="0"
       id="path3712"
       d="m 670,347 c 0,24 20,45 45,45 24,0 45,-20 45,-45 0,-24 -20,-45 -45,-45 -24,0 -45,20 -45,45 z"
       style="fill:#ff0000;stroke:#483737;stroke-width:1px" />
    <path
       style="fill:#0000ff;stroke:#483737;stroke-width:1px"
       d="m 570,347 c 0,24 20,45 45,45 24,0 45,-20 45,-45 0,-24 -20,-45 -45,-45 -24,0 -45,20 -45,45 z"
       id="path3714"
       inkscape:connector-curvature="0" />
    <path
       inkscape:connector-curvature="0"
       id="path3716"
       d="m 465,227 c 0,21 -17,40 -40,40 -21,0 -40,-17 -40,-40 0,-21 17,-40 40,-40 21,0 40,17 40,40 z"
       style="fill:#000000;stroke:none" />
    <path
       style="fill:#000000;stroke:none"
       d="m 560,227 c 0,18 -15,35 -35,35 -18,0 -35,-15 -35,-35 0,-18 15,-35 35,-35 18,0 35,15 35,35 z"
       id="path3718"
       inkscape:connector-curvature="0" />
    <path
       inkscape:connector-curvature="0"
       id="path3720"
       d="m 655,227 c 0,16 -13,30 -30,30 -16,0 -30,-13 -30,-30 0,-16 13,-30 30,-30 16,0 30,13 30,30 z"
       style="fill:#000000;stroke:none" />
    <path
       style="fill:#000000;stroke:none"
       d="m 750,227 c 0,13 -11.11111,25 -25,25 -13,0 -25,-11 -25,-25 0,-13 11,-25 25,-25 13,0 25,11 25,25 z"
       id="path3722"
       inkscape:connector-curvature="0" />
    <path
       inkscape:connector-curvature="0"
       id="path3724"
       d="m 845,227 c 0,10 -8,20 -20,20 -10,0 -20,-8 -20,-20 0,-10 8,-20 20,-20 10,0 20,8 20,20 z"
       style="fill:#000000;stroke:none" />
    <path
       style="fill:#000000;stroke:none"
       d="m 940,227 c 0,8 -6,15 -15,15 -8,0 -15,-6 -15,-15 0,-8 6,-15 15,-15 8,0 15,6 15,15 z"
       id="path3726"
       inkscape:connector-curvature="0" />
    <path
       style="fill:none;stroke:#00ff00;stroke-width:1px"
       d="m 470,448 c 0,24 20,45 45,45 24,0 45,-20 45,-45 0,-24 -20,-45 -45,-45 -24,0 -45,20 -45,45 z"
       id="path3728"
       inkscape:connector-curvature="0" />
    <path
       inkscape:connector-curvature="0"
       id="path3730"
       d="m 370,448 c 0,24 20,45 45,45 24,0 45,-20 45,-45 0,-24 -20,-45 -45,-45 -24,0 -45,20 -45,45 z"
       style="fill:none;stroke:#ff0000;stroke-width:1px" />
    <path
       style="fill:none;stroke:#0000ff;stroke-width:1px"
       d="m 270,448 c 0,24 20,45 45,45 24,0 45,-20 45,-45 0,-24 -20,-45 -45,-45 -24,0 -45,20 -45,45 z"
       id="path3732"
       inkscape:connector-curvature="0" />
    <path
       inkscape:connector-curvature="0"
       id="path3734"
       d="m 170,448 c 0,24 20,45 45,45 24,0 45,-20 45,-45 0,-24 -20,-45 -45,-45 -24,0 -45,20 -45,45 z"
       style="fill:none;stroke:#00ff00;stroke-width:1px" />
    <path
       style="fill:none;stroke:#ff0000;stroke-width:1px"
       d="m 70,448 c 0,24 20,45 45,45 24,0 45,-20 45,-45 0,-24 -20,-45 -45,-45 -24,0 -45,20 -45,45 z"
       id="path3736"
       inkscape:connector-curvature="0" />
    <path
       style="fill:#000000;stroke:none"
       d="m 785,127 c 0,21 17,40 40,40 21,0 40,-17 40,-40 0,-21 -17,-40 -40,-40 -21,0 -40,17 -40,40 z"
       id="path3738"
       inkscape:connector-curvature="0" />
    <path
       inkscape:connector-curvature="0"
       id="path3740"
       d="m 690,127 c 0,18 15,35 35,35 18,0 35,-15 35,-35 0,-18 -15,-35 -35,-35 -18,0 -35,15 -35,35 z"
       style="fill:#000000;stroke:none" />
    <path
       style="fill:#000000;stroke:none"
       d="m 595,127 c 0,16 13,30 30,30 16,0 30,-13 30,-30 0,-16 -13,-30 -30,-30 -16,0 -30,13 -30,30 z"
       id="path3742"
       inkscape:connector-curvature="0" />
    <path
       inkscape:connector-curvature="0"
       id="path3744"
       d="m 500,127 c 0,13 11.11111,25 25,25 13,0 25,-11 25,-25 0,-13 -11,-25 -25,-25 -13,0 -25,11 -25,25 z"
       style="fill:#000000;stroke:none" />
    <path
       style="fill:#000000;stroke:none"
       d="m 405,127 c 0,10 8,20 20,20 10,0 20,-8 20,-20 0,-10 -8,-20 -20,-20 -10,0 -20,8 -20,20 z"
       id="path3746"
       inkscape:connector-curvature="0" />
    <path
       inkscape:connector-curvature="0"
       id="path3748"
       d="m 310,127 c 0,8 6,15 15,15 8,0 15,-6 15,-15 0,-8 -6,-15 -15,-15 -8,0 -15,6 -15,15 z"
       style="fill:#000000;stroke:none" />
    <path
       inkscape:connector-curvature="0"
       id="path3750"
       d="m 470,348 c 0,24 20,45 45,45 24,0 45,-20 45,-45 0,-24 -20,-45 -45,-45 -24,0 -45,20 -45,45 z"
       style="fill:#00ff00;stroke:#483737;stroke-width:1px" />
    <path
       style="fill:#ff0000;stroke:#483737;stroke-width:1px"
       d="m 370,348 c 0,24 20,45 45,45 24,0 45,-20 45,-45 0,-24 -20,-45 -45,-45 -24,0 -45,20 -45,45 z"
       id="path3752"
       inkscape:connector-curvature="0" />
    <path
       inkscape:connector-curvature="0"
       id="path3754"
       d="m 270,348 c 0,24 20,45 45,45 24,0 45,-20 45,-45 0,-24 -20,-45 -45,-45 -24,0 -45,20 -45,45 z"
       style="fill:#0000ff;stroke:#483737;stroke-width:1px" />
    <path
       style="fill:#00ff00;stroke:#483737;stroke-width:1px"
       d="m 170,348 c 0,24 20,45 45,45 24,0 45,-20 45,-45 0,-24 -20,-45 -45,-45 -24,0 -45,20 -45,45 z"
       id="path3756"
       inkscape:connector-curvature="0" />
    <path
       inkscape:connector-curvature="0"
       id="path3758"
       d="m 70,348 c 0,24 20,45 45,45 24,0 45,-20 45,-45 0,-24 -20,-45 -45,-45 -24,0 -45,20 -45,45 z"
       style="fill:#ff0000;stroke:#483737;stroke-width:1px" />
  </g>
  <g
     style="display:inline"
     id="g3042"
     inkscape:groupmode="layer"
     inkscape:label="TEST_02">
    <path
       style="fill:#ff0000;stroke:none"
       d="m 260,627 c 0,55 -45,100 -101,100 -55,0 -99,-45 -99,-100 0,-56 44,-100 99,-100 56,0 101,44 101,100 z"
       id="path3105"
       inkscape:connector-curvature="0" />
    <path
       inkscape:connector-curvature="0"
       id="path3108"
       d="m 370,677 c 0,24 -20,45 -45,45 -24,0 -45,-20 -45,-45 0,-24 20,-45 45,-45 24,0 45,20 45,45 z"
       style="fill:#ff0000;stroke:none" />
    <path
       style="fill:#ff0000;stroke:none"
       d="m 880,577 c 0,24 20,45 45,45 24,0 45,-20 45,-45 0,-24 -20,-45 -45,-45 -24,0 -45,20 -45,45 z"
       id="path3110"
       inkscape:connector-curvature="0" />
    <path
       inkscape:connector-curvature="0"
       id="path3112"
       d="m 465,677 c 0,21 -17,40 -40,40 -21,0 -40,-17 -40,-40 0,-21 17,-40 40,-40 21,0 40,17 40,40 z"
       style="fill:#ff0000;stroke:none" />
    <path
       style="fill:#ff0000;stroke:none"
       d="m 560,677 c 0,18 -15,35 -35,35 -18,0 -35,-15 -35,-35 0,-18 15,-35 35,-35 18,0 35,15 35,35 z"
       id="path3114"
       inkscape:connector-curvature="0" />
    <path
       inkscape:connector-curvature="0"
       id="path3116"
       d="m 655,677 c 0,16 -13,30 -30,30 -16,0 -30,-13 -30,-30 0,-16 13,-30 30,-30 16,0 30,13 30,30 z"
       style="fill:#ff0000;stroke:none" />
    <path
       style="fill:#ff0000;stroke:none"
       d="m 750,677 c 0,13 -11.11111,25 -25,25 -13,0 -25,-11 -25,-25 0,-13 11,-25 25,-25 13,0 25,11 25,25 z"
       id="path3118"
       inkscape:connector-curvature="0" />
    <path
       inkscape:connector-curvature="0"
       id="path3120"
       d="m 845,677 c 0,10 -8,20 -20,20 -10,0 -20,-8 -20,-20 0,-10 8,-20 20,-20 10,0 20,8 20,20 z"
       style="fill:#ff0000;stroke:none" />
    <path
       style="fill:#ff0000;stroke:none"
       d="m 940,677 c 0,8 -6,15 -15,15 -8,0 -15,-6 -15,-15 0,-8 6,-15 15,-15 8,0 15,6 15,15 z"
       id="path3122"
       inkscape:connector-curvature="0" />
    <path
       style="fill:#ff0000;stroke:none"
       d="m 785,577 c 0,21 17,40 40,40 21,0 40,-17 40,-40 0,-21 -17,-40 -40,-40 -21,0 -40,17 -40,40 z"
       id="path3124"
       inkscape:connector-curvature="0" />
    <path
       inkscape:connector-curvature="0"
       id="path3126"
       d="m 690,577 c 0,18 15,35 35,35 18,0 35,-15 35,-35 0,-18 -15,-35 -35,-35 -18,0 -35,15 -35,35 z"
       style="fill:#ff0000;stroke:none" />
    <path
       style="fill:#ff0000;stroke:none"
       d="m 595,577 c 0,16 13,30 30,30 16,0 30,-13 30,-30 0,-16 -13,-30 -30,-30 -16,0 -30,13 -30,30 z"
       id="path3128"
       inkscape:connector-curvature="0" />
    <path
       inkscape:connector-curvature="0"
       id="path3130"
       d="m 500,577 c 0,13 11.11111,25 25,25 13,0 25,-11 25,-25 0,-13 -11,-25 -25,-25 -13,0 -25,11 -25,25 z"
       style="fill:#ff0000;stroke:none" />
    <path
       style="fill:#ff0000;stroke:none"
       d="m 405,577 c 0,10 8,20 20,20 10,0 20,-8 20,-20 0,-10 -8,-20 -20,-20 -10,0 -20,8 -20,20 z"
       id="path3132"
       inkscape:connector-curvature="0" />
    <path
       inkscape:connector-curvature="0"
       id="path3134"
       d="m 310,577 c 0,8 6,15 15,15 8,0 15,-6 15,-15 0,-8 -6,-15 -15,-15 -8,0 -15,6 -15,15 z"
       style="fill:#ff0000;stroke:none" />
    <path
       id="path3136"
       d="m 881,737 c -56,0 -101,44 -101,100 0,55 45,100 101,100 55,0 99,-45 99,-100 0,-56 -44,-100 -99,-100 z"
       style="fill:#ff0000;stroke:none"
       inkscape:connector-curvature="0" />
    <path
       sodipodi:nodetypes="aasssaaaaaaasssaaa"
       inkscape:connector-curvature="0"
       id="path3138"
       d="m 607,882 c -4.97124,3.2643 -10.76439,6.84702 -16.6875,6.3125 C 561.13338,885.67929 548.19341,843 515,843 c -27.36574,0 -45,20 -45,45 0,24 20,45 45,45 9.07764,0 14.75106,-17.77522 24.96875,-17.78125 10.23467,-0.006 14.91969,19.36393 25.03125,17.78125 14.11564,-2.2094 11.40026,-34.39936 25.6875,-34.3125 13.74675,0.0836 10.85651,30.49889 24.3125,33.3125 9.91547,2.07329 16.12698,-15.68604 26.25,-15.3125 9.59763,0.35415 14.24584,14.93012 23.75,16.3125 8.90595,1.29537 16.68832,-8.2189 25.6875,-8.3125 C 699.14984,924.5995 706.01562,932 715,932 c 24,0 45,-20 45,-45 0,-24 -20,-45 -45,-45 -33.16384,0 -22.38746,55.24867 -46,54 -18.42512,-0.97435 -12.86612,-44.11664 -31.25,-45.6875 C 623.08512,849.05942 619.30304,873.92138 607,882 z"
       style="fill:#ff0000;stroke:none" />
    <path
       id="path3140"
       d="m 715,742 c -24,0 -45,20 -45,45 0,24 20,45 45,45 24,0 45,-20 45,-45 0,-24 -20,-45 -45,-45 z"
       style="fill:#ff0000;stroke:none"
       inkscape:connector-curvature="0" />
    <path
       id="path3142"
       d="m 615,742 c -24,0 -45,20 -45,45 0,24 20,45 45,45 24,0 45,-20 45,-45 0,-24 -20,-45 -45,-45 z m 1.21875,7.96875 c 10.28111,0.2008 20.14699,5.46962 26.84375,13.21875 14.84943,15.51201 10.16889,42.61175 -7.09375,54.21875 -18.05505,14.11608 -47.05204,4.37693 -55.25,-16.40625 -10.58095,-22.31149 8.95192,-51.3927 33.4375,-51 0.68827,-0.0324 1.37709,-0.0446 2.0625,-0.0313 z"
       style="fill:#ff0000;stroke:none"
       inkscape:connector-curvature="0" />
    <path
       sodipodi:nodetypes="sssasssas"
       inkscape:connector-curvature="0"
       id="path3144"
       d="m 112,843 c -24,0 -42,20 -42,45 0,24 17,45 42,45 27.7901,0 32.90998,-29.27017 53.125,-29.25 20.14206,0.0201 29.86533,29.25 52.875,29.25 24,0 42,-20 42,-45 0,-24 -17,-45 -42,-45 -26.05542,0 -32.90998,29.27017 -53.125,29.25 C 144.73294,872.2299 135.87701,843 112,843 z"
       style="fill:#ff0000;stroke:none" />
    <path
       id="path3146"
       d="m 515,743 c -24,0 -45,20 -45,45 0,24 20,45 45,45 24,0 45,-20 45,-45 0,-24 -20,-45 -45,-45 z m 10.5625,27.96875 c 2.46112,-0.009 4.91936,0.39135 7.21875,1.1875 16.3182,4.05587 23.92493,24.7778 15.84375,38.96875 -7.67163,16.56155 -32.77088,18.02004 -44.15625,4.53125 C 488.88148,800.28359 503.23531,770.13051 524.5,771 c 0.35085,-0.018 0.71091,-0.0299 1.0625,-0.0313 z"
       style="fill:#ff0000;stroke:none"
       inkscape:connector-curvature="0" />
    <path
       sodipodi:nodetypes="aaaaa"
       style="fill:#ff0000;stroke:none"
       d="m 421.53334,789.35314 c 0.75916,15.27118 -29.75146,32.11896 -18.1802,42.11352 15.75006,13.60395 51.22365,-12.09397 53.11352,-32.8198 2.44163,-26.77691 -38.76371,-70.83493 -59.8198,-54.11352 -13.38207,10.62719 24.03803,27.75238 24.88648,44.8198 z"
       id="path3148"
       inkscape:connector-curvature="0" />
    <path
       sodipodi:nodetypes="aaaaaa"
       inkscape:connector-curvature="0"
       id="path3150"
       d="m 276.02886,776.5 c -5.50505,16.81892 0.93071,42.00494 16.47114,50.47114 24.66202,13.43552 82.18691,6.60405 81.47114,-21.47114 -0.51622,-20.24831 -46.87242,3.38865 -59.47114,-12.47114 -9.29964,-11.70678 14.1916,-37.87514 0.96336,-44.84261 -14.31752,-7.5412 -34.40067,12.9345 -39.4345,28.31375 z"
       style="fill:#ff0000;stroke:none" />
    <path
       sodipodi:nodetypes="sssasssas"
       style="fill:#ff0000;stroke:none"
       d="m 225,833 c 14.33333,0 35,-20 35,-45 0,-24 -20.41667,-45 -35,-45 -39.91007,0 -32.63328,55.15724 -59.6875,55 -26.71897,-0.1553 -23.49431,-55 -58.3125,-55 -16.940496,0 -37,20 -37,45 0,24 19.064599,45 37,45 31.34368,0 37.15405,-26.95684 58.6875,-27 21.72289,-0.0435 27.10147,27 59.3125,27 z"
       id="path3152"
       inkscape:connector-curvature="0" />
    <path
       style="fill:#ff0000;stroke:none"
       d="m 307,847 c -18.87011,-6.2563 -35.3033,29.16257 -34,49 0.97459,14.83409 15.32013,30.65451 30,33 23.5114,3.75656 38.36001,-36.70693 62.125,-35.25 21.90913,1.34316 30.93339,39.86642 52.875,39.25 18.21673,-0.51177 47.29033,-17.56086 42,-35 -6.42234,-21.17069 -46.6883,3.79364 -66,-7 -13.87326,-7.75401 -13.33948,-35.90352 -29.125,-37.75 -25.44146,-2.97596 -36.78372,59.77984 -59.71497,48.36572 C 288.85291,893.49878 324.29006,852.73244 307,847 z"
       id="path3154"
       inkscape:connector-curvature="0"
       sodipodi:nodetypes="aaaaaaaaaa" />
    <path
       style="fill:#ff0000;stroke:none"
       d="m 378.92065,752.79999 c -10.86434,-7.75906 -29.78759,-6.11959 -39.97279,2.51167 -8.04648,6.81883 -15.19797,24.023 -7.13794,30.82581 10.12651,8.54697 23.96488,-19.1029 36.67248,-15.34606 14.54451,4.2999 11.91255,43.93662 25.67559,37.56397 17.42509,-8.06828 0.38908,-44.39537 -15.23734,-55.55539 z"
       id="path3156"
       inkscape:connector-curvature="0"
       sodipodi:nodetypes="aaaaaa" />
  </g>
</svg>
